p2/xrun.log
xrun: 18.09-s011: (c) Copyright 1995-2019 Cadence Design Systems, Inc.
TOOL:	xrun	18.09-s011: Started on May 25, 2026 at 16:05:19 CDT
xrun
	memory_module.v
	memory_module_tb.v
	-access +rwc
Loading snapshot worklib.memory_module_tb:v .................... Done
xcelium> source /vol/cadence2018/XCELIUM1809/tools/xcelium/files/xmsimrc
xcelium> run
  time  | RSTB CE WE SEQ | ADDR INPUT | OUTPUT
--------+----------------+------------+-------
      0 |  0   0  0   0  |  00    00  |   zz
   1000 |  1   0  0   0  |  00    00  |   zz
   2000 |  1   1  0   0  |  00    00  |   00
   3000 |  1   1  1   0  |  10    aa  |   00
   4000 |  1   1  1   0  |  10    aa  |   aa
   4000 |  1   1  1   0  |  11    bb  |   aa
   5000 |  1   1  1   0  |  11    bb  |   bb
   5000 |  1   1  1   0  |  12    cc  |   bb
   6000 |  1   1  1   0  |  12    cc  |   cc
   6000 |  1   1  0   0  |  10    cc  |   cc
   7000 |  1   1  0   0  |  10    cc  |   aa
   7000 |  1   1  0   0  |  11    cc  |   aa
   8000 |  1   1  0   0  |  11    cc  |   bb
   8000 |  1   1  0   0  |  12    cc  |   bb
   9000 |  1   1  0   0  |  12    cc  |   cc
   9000 |  1   0  0   0  |  12    cc  |   zz
  11000 |  1   1  0   0  |  12    cc  |   cc
  12000 |  1   1  1   1  |  20    11  |   cc
  13000 |  1   1  1   1  |  20    11  |   11
  13000 |  1   1  1   1  |  20    22  |   11
  14000 |  1   1  1   1  |  20    22  |   22
  14000 |  1   1  1   1  |  20    33  |   22
  15000 |  1   1  1   1  |  20    33  |   33
  15000 |  1   1  1   1  |  20    44  |   33
  16000 |  1   1  1   1  |  20    44  |   44
  16000 |  1   1  0   0  |  20    44  |   44
  17000 |  1   1  0   0  |  20    44  |   11
  17000 |  1   1  0   1  |  20    44  |   11
  19000 |  1   1  0   1  |  20    44  |   22
  20000 |  1   1  0   1  |  20    44  |   33
  21000 |  1   1  0   1  |  20    44  |   44
  21000 |  1   1  0   0  |  20    44  |   44
  22000 |  1   1  0   0  |  20    44  |   11
Simulation complete via $finish(1) at time 23 NS + 0
./memory_module_tb.v:96         #1 $finish;
xcelium> exit
TOOL:	xrun	18.09-s011: Exiting on May 25, 2026 at 16:05:21 CDT  (total: 00:00:02)
